{
  "Routes": [
    {
      "DownstreamPathTemplate": "/api/mailing/{everything}",
      "DownstreamScheme": "https",
      "DangerousAcceptAnyServerCertificateValidator": true,
      "DownstreamHostAndPorts": [
        {
          "Host": "catalogsmanagement.mailing",
          "Port": "443"
        }
      ],
      "UpstreamPathTemplate": "/api/mailing/{everything}",
      "SwaggerKey": "catalogsmanagement.mailing"
    }
  ],

  "SwaggerEndPoints": [
    {
      "Key": "catalogsmanagement.mailing",
      "Config": [
        {
          "Name": "Mailing API",
          "Version": "v1",
          "Url": "http://catalogsmanagement.mailing:80/swagger/v1/swagger.json"
        }
      ]
    }
  ]
}
