{
  "Routes": [
    {
      "DownstreamPathTemplate": "/api/vk/wall_post/{everything}",
      "DownstreamScheme": "https",
      "DangerousAcceptAnyServerCertificateValidator": true,
      "DownstreamHostAndPorts": [
        {
          "Host": "catalogsmanagement.post_tracker",
          "Port": "443"
        }
      ],
      "UpstreamPathTemplate": "/api/vk/wall_post/{everything}",
      "SwaggerKey": "catalogsmanagement.post_tracker"
    }
  ],

  "SwaggerEndPoints": [
    {
      "Key": "catalogsmanagement.post_tracker",
      "Config": [
        {
          "Name": "PostTracker API",
          "Version": "v1",
          "Url": "http://catalogsmanagement.post_tracker:80/swagger/v1/swagger.json"
        }
      ]
    }
  ]
}
